-- Merging decision tree log ---
manifest
ADDED from /Users/4ie/Downloads/ICWE'20/android-server-server-solidPod/src/main/AndroidManifest.xml:1:1-24:12
INJECTED from /Users/4ie/Downloads/ICWE'20/android-server-server-solidPod/src/main/AndroidManifest.xml:1:1-24:12
MERGED from [androidx.appcompat:appcompat:1.0.0] /Users/4ie/.gradle/caches/transforms-2/files-2.1/3058c647254461f88178d10efcc2bd41/appcompat-1.0.0/AndroidManifest.xml:17:1-22:12
MERGED from [androidx.constraintlayout:constraintlayout:1.1.3] /Users/4ie/.gradle/caches/transforms-2/files-2.1/61ac015003c7090061b9318211a9ae75/constraintlayout-1.1.3/AndroidManifest.xml:2:1-11:12
MERGED from [com.google.firebase:firebase-messaging:17.3.1] /Users/4ie/.gradle/caches/transforms-2/files-2.1/a6b63c0d5f1188cd317b6b93510bf33b/jetified-firebase-messaging-17.3.1/AndroidManifest.xml:17:1-37:12
MERGED from [com.google.firebase:firebase-core:16.0.3] /Users/4ie/.gradle/caches/transforms-2/files-2.1/21d2b149b30f1271d09d61d14760d040/firebase-core-16.0.3/AndroidManifest.xml:2:1-9:12
MERGED from [androidx.room:room-runtime:2.0.0] /Users/4ie/.gradle/caches/transforms-2/files-2.1/e77210b66f989adfc583e5e9bbedd0bf/room-runtime-2.0.0/AndroidManifest.xml:17:1-22:12
MERGED from [com.android.volley:volley:1.1.0] /Users/4ie/.gradle/caches/transforms-2/files-2.1/722456b6df1b605287e53512eed1df14/volley-1.1.0/AndroidManifest.xml:2:1-11:12
MERGED from [com.google.firebase:firebase-measurement-connector-impl:17.0.1] /Users/4ie/.gradle/caches/transforms-2/files-2.1/e20337f6dbbcea82c380e8eb55f251c0/jetified-firebase-measurement-connector-impl-17.0.1/AndroidManifest.xml:17:1-34:12
MERGED from [com.google.firebase:firebase-analytics:16.0.3] /Users/4ie/.gradle/caches/transforms-2/files-2.1/7976341d35454c9150ec024cce29c427/jetified-firebase-analytics-16.0.3/AndroidManifest.xml:17:1-55:12
MERGED from [com.google.android.gms:play-services-measurement-api:16.0.1] /Users/4ie/.gradle/caches/transforms-2/files-2.1/12f1fa08b7ab57a76ec74b5d599b775c/jetified-play-services-measurement-api-16.0.1/AndroidManifest.xml:17:1-25:12
MERGED from [com.google.firebase:firebase-analytics-impl:16.2.1] /Users/4ie/.gradle/caches/transforms-2/files-2.1/de796e85b5307c9bd6a7ab305debb851/jetified-firebase-analytics-impl-16.2.1/AndroidManifest.xml:17:1-40:12
MERGED from [com.google.firebase:firebase-iid:17.0.1] /Users/4ie/.gradle/caches/transforms-2/files-2.1/fb20383dd92539c287dfc0cb29345a6e/jetified-firebase-iid-17.0.1/AndroidManifest.xml:17:1-59:12
MERGED from [com.google.firebase:firebase-common:16.0.1] /Users/4ie/.gradle/caches/transforms-2/files-2.1/8cb76dd047487b887f101344838fbb4e/jetified-firebase-common-16.0.1/AndroidManifest.xml:2:1-17:12
MERGED from [com.google.firebase:firebase-iid-interop:16.0.0] /Users/4ie/.gradle/caches/transforms-2/files-2.1/290d49b75720144314101fdc14145edc/jetified-firebase-iid-interop-16.0.0/AndroidManifest.xml:2:1-10:12
MERGED from [com.google.android.gms:play-services-base:15.0.1] /Users/4ie/.gradle/caches/transforms-2/files-2.1/ad326f339dbf53cf2f9d687e5319a899/jetified-play-services-base-15.0.1/AndroidManifest.xml:17:1-29:12
MERGED from [com.google.android.gms:play-services-tasks:15.0.1] /Users/4ie/.gradle/caches/transforms-2/files-2.1/21ab694ddc9ba005d9d064acdc9c581e/jetified-play-services-tasks-15.0.1/AndroidManifest.xml:2:1-9:12
MERGED from [com.google.android.gms:play-services-stats:15.0.1] /Users/4ie/.gradle/caches/transforms-2/files-2.1/ba1f25003db8a56c557703792d2eae2a/jetified-play-services-stats-15.0.1/AndroidManifest.xml:2:1-9:12
MERGED from [com.google.firebase:firebase-measurement-connector:17.0.0] /Users/4ie/.gradle/caches/transforms-2/files-2.1/bf16e5bd6cce762f1275ed518e3d8273/jetified-firebase-measurement-connector-17.0.0/AndroidManifest.xml:17:1-25:12
MERGED from [com.google.android.gms:play-services-ads-identifier:15.0.1] /Users/4ie/.gradle/caches/transforms-2/files-2.1/dd792603c213ddd7909aadaa1c9e5315/jetified-play-services-ads-identifier-15.0.1/AndroidManifest.xml:17:1-24:12
MERGED from [com.google.android.gms:play-services-basement:15.0.1] /Users/4ie/.gradle/caches/transforms-2/files-2.1/93774a5326db928439a06c087aecc699/jetified-play-services-basement-15.0.1/AndroidManifest.xml:17:1-28:12
MERGED from [androidx.legacy:legacy-support-v4:1.0.0] /Users/4ie/.gradle/caches/transforms-2/files-2.1/69237cf0ef66aa8a29c5d37a77a64de4/legacy-support-v4-1.0.0/AndroidManifest.xml:17:1-22:12
MERGED from [androidx.fragment:fragment:1.0.0] /Users/4ie/.gradle/caches/transforms-2/files-2.1/d0aed6f1d67e74d7f687e5c0bd796c7c/fragment-1.0.0/AndroidManifest.xml:17:1-22:12
MERGED from [androidx.vectordrawable:vectordrawable-animated:1.0.0] /Users/4ie/.gradle/caches/transforms-2/files-2.1/897edba790783446d886205b3c2bffcd/vectordrawable-animated-1.0.0/AndroidManifest.xml:17:1-22:12
MERGED from [androidx.legacy:legacy-support-core-ui:1.0.0] /Users/4ie/.gradle/caches/transforms-2/files-2.1/d2096b15779507acda64b46e0f83f153/legacy-support-core-ui-1.0.0/AndroidManifest.xml:17:1-22:12
MERGED from [androidx.legacy:legacy-support-core-utils:1.0.0] /Users/4ie/.gradle/caches/transforms-2/files-2.1/97e35843906f83912c6142fe79482cda/legacy-support-core-utils-1.0.0/AndroidManifest.xml:17:1-22:12
MERGED from [androidx.vectordrawable:vectordrawable:1.0.0] /Users/4ie/.gradle/caches/transforms-2/files-2.1/2cf529fc9aec48a19466854d480ad633/vectordrawable-1.0.0/AndroidManifest.xml:17:1-22:12
MERGED from [androidx.loader:loader:1.0.0] /Users/4ie/.gradle/caches/transforms-2/files-2.1/46e9f6cfc3ce4044a05e4844b8fa562e/loader-1.0.0/AndroidManifest.xml:17:1-22:12
MERGED from [androidx.viewpager:viewpager:1.0.0] /Users/4ie/.gradle/caches/transforms-2/files-2.1/c6e330c61dc02fc8f0715f1d8c07ce19/viewpager-1.0.0/AndroidManifest.xml:17:1-22:12
MERGED from [androidx.coordinatorlayout:coordinatorlayout:1.0.0] /Users/4ie/.gradle/caches/transforms-2/files-2.1/91342e88ab4924953e72df07e98e1dec/coordinatorlayout-1.0.0/AndroidManifest.xml:17:1-22:12
MERGED from [androidx.drawerlayout:drawerlayout:1.0.0] /Users/4ie/.gradle/caches/transforms-2/files-2.1/e535b46099016b496c9a02dd49ce3e58/drawerlayout-1.0.0/AndroidManifest.xml:17:1-22:12
MERGED from [androidx.slidingpanelayout:slidingpanelayout:1.0.0] /Users/4ie/.gradle/caches/transforms-2/files-2.1/f1fbcb11f1e56ad98f8c9cbe5e548846/slidingpanelayout-1.0.0/AndroidManifest.xml:17:1-22:12
MERGED from [androidx.customview:customview:1.0.0] /Users/4ie/.gradle/caches/transforms-2/files-2.1/200bd284726050d1f88f5c0b1d33d779/customview-1.0.0/AndroidManifest.xml:17:1-22:12
MERGED from [androidx.swiperefreshlayout:swiperefreshlayout:1.0.0] /Users/4ie/.gradle/caches/transforms-2/files-2.1/892a5dea31c6428399f5dee395311c64/swiperefreshlayout-1.0.0/AndroidManifest.xml:17:1-22:12
MERGED from [androidx.asynclayoutinflater:asynclayoutinflater:1.0.0] /Users/4ie/.gradle/caches/transforms-2/files-2.1/0cba1cb48cfa6e3d08dcd3bc2c0ed3b0/asynclayoutinflater-1.0.0/AndroidManifest.xml:17:1-22:12
MERGED from [androidx.media:media:1.0.0] /Users/4ie/.gradle/caches/transforms-2/files-2.1/9b82ae25d7fd53bbdfe71b3facda08da/media-1.0.0/AndroidManifest.xml:17:1-22:12
MERGED from [androidx.core:core:1.0.0] /Users/4ie/.gradle/caches/transforms-2/files-2.1/a20b19534ec45b4f14d11991741b6c12/core-1.0.0/AndroidManifest.xml:17:1-24:12
MERGED from [androidx.versionedparcelable:versionedparcelable:1.0.0] /Users/4ie/.gradle/caches/transforms-2/files-2.1/b19f062e17639ee898adc9a778a0133b/versionedparcelable-1.0.0/AndroidManifest.xml:17:1-25:12
MERGED from [androidx.cursoradapter:cursoradapter:1.0.0] /Users/4ie/.gradle/caches/transforms-2/files-2.1/ffcec0c76f59bfb3c9bd3fa2435323ac/cursoradapter-1.0.0/AndroidManifest.xml:17:1-22:12
MERGED from [androidx.sqlite:sqlite-framework:2.0.0] /Users/4ie/.gradle/caches/transforms-2/files-2.1/afdf5091933dfb422e27071ac553726b/sqlite-framework-2.0.0/AndroidManifest.xml:17:1-22:12
MERGED from [androidx.sqlite:sqlite:2.0.0] /Users/4ie/.gradle/caches/transforms-2/files-2.1/d0e31fb7cbcad669bc7afa20cd0dc480/sqlite-2.0.0/AndroidManifest.xml:17:1-22:12
MERGED from [androidx.lifecycle:lifecycle-livedata:2.0.0] /Users/4ie/.gradle/caches/transforms-2/files-2.1/be231a28aaa2449ce4853d3db2493e6c/lifecycle-livedata-2.0.0/AndroidManifest.xml:17:1-22:12
MERGED from [androidx.lifecycle:lifecycle-livedata-core:2.0.0] /Users/4ie/.gradle/caches/transforms-2/files-2.1/12ca435aab6c06f265d329fee45bdc0e/lifecycle-livedata-core-2.0.0/AndroidManifest.xml:17:1-22:12
MERGED from [androidx.arch.core:core-runtime:2.0.0] /Users/4ie/.gradle/caches/transforms-2/files-2.1/6d726f37b9dab952a27289d0819246e8/core-runtime-2.0.0/AndroidManifest.xml:17:1-22:12
MERGED from [androidx.lifecycle:lifecycle-runtime:2.0.0] /Users/4ie/.gradle/caches/transforms-2/files-2.1/59178626827df158d0b8b80954e920cf/lifecycle-runtime-2.0.0/AndroidManifest.xml:17:1-22:12
MERGED from [androidx.documentfile:documentfile:1.0.0] /Users/4ie/.gradle/caches/transforms-2/files-2.1/fe1cb231c010a2cbc75f76ef63cac664/documentfile-1.0.0/AndroidManifest.xml:17:1-22:12
MERGED from [androidx.localbroadcastmanager:localbroadcastmanager:1.0.0] /Users/4ie/.gradle/caches/transforms-2/files-2.1/d28c34cfc7e33f6b1b01198b7abd15de/localbroadcastmanager-1.0.0/AndroidManifest.xml:17:1-22:12
MERGED from [androidx.print:print:1.0.0] /Users/4ie/.gradle/caches/transforms-2/files-2.1/b520b4e9086485567eb49a2e8529fdfe/print-1.0.0/AndroidManifest.xml:17:1-22:12
MERGED from [androidx.lifecycle:lifecycle-viewmodel:2.0.0] /Users/4ie/.gradle/caches/transforms-2/files-2.1/b09c2739c3128e6f404e47deac8b48e1/lifecycle-viewmodel-2.0.0/AndroidManifest.xml:17:1-22:12
MERGED from [androidx.interpolator:interpolator:1.0.0] /Users/4ie/.gradle/caches/transforms-2/files-2.1/e3788a727e8e59d2b23791dd166c3319/interpolator-1.0.0/AndroidManifest.xml:17:1-22:12
MERGED from [com.google.android.gms:play-services-measurement-base:16.0.2] /Users/4ie/.gradle/caches/transforms-2/files-2.1/30b22969cba594ccbd7b7f3e7d919ad4/play-services-measurement-base-16.0.2/AndroidManifest.xml:2:1-9:12
INJECTED from /Users/4ie/Downloads/ICWE'20/android-server-server-solidPod/src/main/AndroidManifest.xml:1:1-24:12
	package
		ADDED from /Users/4ie/Downloads/ICWE'20/android-server-server-solidPod/src/main/AndroidManifest.xml:1:71-104
		INJECTED from /Users/4ie/Downloads/ICWE'20/android-server-server-solidPod/src/main/AndroidManifest.xml
		INJECTED from /Users/4ie/Downloads/ICWE'20/android-server-server-solidPod/src/main/AndroidManifest.xml
	xmlns:android
		ADDED from /Users/4ie/Downloads/ICWE'20/android-server-server-solidPod/src/main/AndroidManifest.xml:1:12-70
uses-permission#android.permission.INTERNET
ADDED from /Users/4ie/Downloads/ICWE'20/android-server-server-solidPod/src/main/AndroidManifest.xml:2:5-67
MERGED from [com.google.firebase:firebase-measurement-connector-impl:17.0.1] /Users/4ie/.gradle/caches/transforms-2/files-2.1/e20337f6dbbcea82c380e8eb55f251c0/jetified-firebase-measurement-connector-impl-17.0.1/AndroidManifest.xml:22:5-67
MERGED from [com.google.firebase:firebase-measurement-connector-impl:17.0.1] /Users/4ie/.gradle/caches/transforms-2/files-2.1/e20337f6dbbcea82c380e8eb55f251c0/jetified-firebase-measurement-connector-impl-17.0.1/AndroidManifest.xml:22:5-67
MERGED from [com.google.firebase:firebase-analytics:16.0.3] /Users/4ie/.gradle/caches/transforms-2/files-2.1/7976341d35454c9150ec024cce29c427/jetified-firebase-analytics-16.0.3/AndroidManifest.xml:23:5-67
MERGED from [com.google.firebase:firebase-analytics:16.0.3] /Users/4ie/.gradle/caches/transforms-2/files-2.1/7976341d35454c9150ec024cce29c427/jetified-firebase-analytics-16.0.3/AndroidManifest.xml:23:5-67
MERGED from [com.google.firebase:firebase-analytics-impl:16.2.1] /Users/4ie/.gradle/caches/transforms-2/files-2.1/de796e85b5307c9bd6a7ab305debb851/jetified-firebase-analytics-impl-16.2.1/AndroidManifest.xml:23:5-67
MERGED from [com.google.firebase:firebase-analytics-impl:16.2.1] /Users/4ie/.gradle/caches/transforms-2/files-2.1/de796e85b5307c9bd6a7ab305debb851/jetified-firebase-analytics-impl-16.2.1/AndroidManifest.xml:23:5-67
MERGED from [com.google.firebase:firebase-iid:17.0.1] /Users/4ie/.gradle/caches/transforms-2/files-2.1/fb20383dd92539c287dfc0cb29345a6e/jetified-firebase-iid-17.0.1/AndroidManifest.xml:23:5-67
MERGED from [com.google.firebase:firebase-iid:17.0.1] /Users/4ie/.gradle/caches/transforms-2/files-2.1/fb20383dd92539c287dfc0cb29345a6e/jetified-firebase-iid-17.0.1/AndroidManifest.xml:23:5-67
	android:name
		ADDED from /Users/4ie/Downloads/ICWE'20/android-server-server-solidPod/src/main/AndroidManifest.xml:2:22-64
uses-permission#android.permission.ACCESS_NETWORK_STATE
ADDED from /Users/4ie/Downloads/ICWE'20/android-server-server-solidPod/src/main/AndroidManifest.xml:3:5-79
MERGED from [com.google.firebase:firebase-measurement-connector-impl:17.0.1] /Users/4ie/.gradle/caches/transforms-2/files-2.1/e20337f6dbbcea82c380e8eb55f251c0/jetified-firebase-measurement-connector-impl-17.0.1/AndroidManifest.xml:23:5-79
MERGED from [com.google.firebase:firebase-measurement-connector-impl:17.0.1] /Users/4ie/.gradle/caches/transforms-2/files-2.1/e20337f6dbbcea82c380e8eb55f251c0/jetified-firebase-measurement-connector-impl-17.0.1/AndroidManifest.xml:23:5-79
MERGED from [com.google.firebase:firebase-analytics:16.0.3] /Users/4ie/.gradle/caches/transforms-2/files-2.1/7976341d35454c9150ec024cce29c427/jetified-firebase-analytics-16.0.3/AndroidManifest.xml:24:5-79
MERGED from [com.google.firebase:firebase-analytics:16.0.3] /Users/4ie/.gradle/caches/transforms-2/files-2.1/7976341d35454c9150ec024cce29c427/jetified-firebase-analytics-16.0.3/AndroidManifest.xml:24:5-79
MERGED from [com.google.firebase:firebase-analytics-impl:16.2.1] /Users/4ie/.gradle/caches/transforms-2/files-2.1/de796e85b5307c9bd6a7ab305debb851/jetified-firebase-analytics-impl-16.2.1/AndroidManifest.xml:24:5-79
MERGED from [com.google.firebase:firebase-analytics-impl:16.2.1] /Users/4ie/.gradle/caches/transforms-2/files-2.1/de796e85b5307c9bd6a7ab305debb851/jetified-firebase-analytics-impl-16.2.1/AndroidManifest.xml:24:5-79
MERGED from [com.google.firebase:firebase-iid:17.0.1] /Users/4ie/.gradle/caches/transforms-2/files-2.1/fb20383dd92539c287dfc0cb29345a6e/jetified-firebase-iid-17.0.1/AndroidManifest.xml:22:5-79
MERGED from [com.google.firebase:firebase-iid:17.0.1] /Users/4ie/.gradle/caches/transforms-2/files-2.1/fb20383dd92539c287dfc0cb29345a6e/jetified-firebase-iid-17.0.1/AndroidManifest.xml:22:5-79
	android:name
		ADDED from /Users/4ie/Downloads/ICWE'20/android-server-server-solidPod/src/main/AndroidManifest.xml:3:22-76
application
ADDED from /Users/4ie/Downloads/ICWE'20/android-server-server-solidPod/src/main/AndroidManifest.xml:5:4-21:19
MERGED from [androidx.constraintlayout:constraintlayout:1.1.3] /Users/4ie/.gradle/caches/transforms-2/files-2.1/61ac015003c7090061b9318211a9ae75/constraintlayout-1.1.3/AndroidManifest.xml:9:5-20
MERGED from [androidx.constraintlayout:constraintlayout:1.1.3] /Users/4ie/.gradle/caches/transforms-2/files-2.1/61ac015003c7090061b9318211a9ae75/constraintlayout-1.1.3/AndroidManifest.xml:9:5-20
MERGED from [com.google.firebase:firebase-messaging:17.3.1] /Users/4ie/.gradle/caches/transforms-2/files-2.1/a6b63c0d5f1188cd317b6b93510bf33b/jetified-firebase-messaging-17.3.1/AndroidManifest.xml:22:5-35:19
MERGED from [com.google.firebase:firebase-messaging:17.3.1] /Users/4ie/.gradle/caches/transforms-2/files-2.1/a6b63c0d5f1188cd317b6b93510bf33b/jetified-firebase-messaging-17.3.1/AndroidManifest.xml:22:5-35:19
MERGED from [com.google.firebase:firebase-core:16.0.3] /Users/4ie/.gradle/caches/transforms-2/files-2.1/21d2b149b30f1271d09d61d14760d040/firebase-core-16.0.3/AndroidManifest.xml:7:5-20
MERGED from [com.google.firebase:firebase-core:16.0.3] /Users/4ie/.gradle/caches/transforms-2/files-2.1/21d2b149b30f1271d09d61d14760d040/firebase-core-16.0.3/AndroidManifest.xml:7:5-20
MERGED from [com.android.volley:volley:1.1.0] /Users/4ie/.gradle/caches/transforms-2/files-2.1/722456b6df1b605287e53512eed1df14/volley-1.1.0/AndroidManifest.xml:9:5-20
MERGED from [com.android.volley:volley:1.1.0] /Users/4ie/.gradle/caches/transforms-2/files-2.1/722456b6df1b605287e53512eed1df14/volley-1.1.0/AndroidManifest.xml:9:5-20
MERGED from [com.google.firebase:firebase-measurement-connector-impl:17.0.1] /Users/4ie/.gradle/caches/transforms-2/files-2.1/e20337f6dbbcea82c380e8eb55f251c0/jetified-firebase-measurement-connector-impl-17.0.1/AndroidManifest.xml:26:5-32:19
MERGED from [com.google.firebase:firebase-measurement-connector-impl:17.0.1] /Users/4ie/.gradle/caches/transforms-2/files-2.1/e20337f6dbbcea82c380e8eb55f251c0/jetified-firebase-measurement-connector-impl-17.0.1/AndroidManifest.xml:26:5-32:19
MERGED from [com.google.firebase:firebase-analytics:16.0.3] /Users/4ie/.gradle/caches/transforms-2/files-2.1/7976341d35454c9150ec024cce29c427/jetified-firebase-analytics-16.0.3/AndroidManifest.xml:28:5-53:19
MERGED from [com.google.firebase:firebase-analytics:16.0.3] /Users/4ie/.gradle/caches/transforms-2/files-2.1/7976341d35454c9150ec024cce29c427/jetified-firebase-analytics-16.0.3/AndroidManifest.xml:28:5-53:19
MERGED from [com.google.android.gms:play-services-measurement-api:16.0.1] /Users/4ie/.gradle/caches/transforms-2/files-2.1/12f1fa08b7ab57a76ec74b5d599b775c/jetified-play-services-measurement-api-16.0.1/AndroidManifest.xml:22:5-23:19
MERGED from [com.google.android.gms:play-services-measurement-api:16.0.1] /Users/4ie/.gradle/caches/transforms-2/files-2.1/12f1fa08b7ab57a76ec74b5d599b775c/jetified-play-services-measurement-api-16.0.1/AndroidManifest.xml:22:5-23:19
MERGED from [com.google.firebase:firebase-analytics-impl:16.2.1] /Users/4ie/.gradle/caches/transforms-2/files-2.1/de796e85b5307c9bd6a7ab305debb851/jetified-firebase-analytics-impl-16.2.1/AndroidManifest.xml:28:5-38:19
MERGED from [com.google.firebase:firebase-analytics-impl:16.2.1] /Users/4ie/.gradle/caches/transforms-2/files-2.1/de796e85b5307c9bd6a7ab305debb851/jetified-firebase-analytics-impl-16.2.1/AndroidManifest.xml:28:5-38:19
MERGED from [com.google.firebase:firebase-iid:17.0.1] /Users/4ie/.gradle/caches/transforms-2/files-2.1/fb20383dd92539c287dfc0cb29345a6e/jetified-firebase-iid-17.0.1/AndroidManifest.xml:28:5-57:19
MERGED from [com.google.firebase:firebase-iid:17.0.1] /Users/4ie/.gradle/caches/transforms-2/files-2.1/fb20383dd92539c287dfc0cb29345a6e/jetified-firebase-iid-17.0.1/AndroidManifest.xml:28:5-57:19
MERGED from [com.google.firebase:firebase-common:16.0.1] /Users/4ie/.gradle/caches/transforms-2/files-2.1/8cb76dd047487b887f101344838fbb4e/jetified-firebase-common-16.0.1/AndroidManifest.xml:9:5-15:19
MERGED from [com.google.firebase:firebase-common:16.0.1] /Users/4ie/.gradle/caches/transforms-2/files-2.1/8cb76dd047487b887f101344838fbb4e/jetified-firebase-common-16.0.1/AndroidManifest.xml:9:5-15:19
MERGED from [com.google.firebase:firebase-iid-interop:16.0.0] /Users/4ie/.gradle/caches/transforms-2/files-2.1/290d49b75720144314101fdc14145edc/jetified-firebase-iid-interop-16.0.0/AndroidManifest.xml:7:5-8:19
MERGED from [com.google.firebase:firebase-iid-interop:16.0.0] /Users/4ie/.gradle/caches/transforms-2/files-2.1/290d49b75720144314101fdc14145edc/jetified-firebase-iid-interop-16.0.0/AndroidManifest.xml:7:5-8:19
MERGED from [com.google.android.gms:play-services-base:15.0.1] /Users/4ie/.gradle/caches/transforms-2/files-2.1/ad326f339dbf53cf2f9d687e5319a899/jetified-play-services-base-15.0.1/AndroidManifest.xml:22:5-27:19
MERGED from [com.google.android.gms:play-services-base:15.0.1] /Users/4ie/.gradle/caches/transforms-2/files-2.1/ad326f339dbf53cf2f9d687e5319a899/jetified-play-services-base-15.0.1/AndroidManifest.xml:22:5-27:19
MERGED from [com.google.android.gms:play-services-tasks:15.0.1] /Users/4ie/.gradle/caches/transforms-2/files-2.1/21ab694ddc9ba005d9d064acdc9c581e/jetified-play-services-tasks-15.0.1/AndroidManifest.xml:7:5-20
MERGED from [com.google.android.gms:play-services-tasks:15.0.1] /Users/4ie/.gradle/caches/transforms-2/files-2.1/21ab694ddc9ba005d9d064acdc9c581e/jetified-play-services-tasks-15.0.1/AndroidManifest.xml:7:5-20
MERGED from [com.google.android.gms:play-services-stats:15.0.1] /Users/4ie/.gradle/caches/transforms-2/files-2.1/ba1f25003db8a56c557703792d2eae2a/jetified-play-services-stats-15.0.1/AndroidManifest.xml:7:5-20
MERGED from [com.google.android.gms:play-services-stats:15.0.1] /Users/4ie/.gradle/caches/transforms-2/files-2.1/ba1f25003db8a56c557703792d2eae2a/jetified-play-services-stats-15.0.1/AndroidManifest.xml:7:5-20
MERGED from [com.google.firebase:firebase-measurement-connector:17.0.0] /Users/4ie/.gradle/caches/transforms-2/files-2.1/bf16e5bd6cce762f1275ed518e3d8273/jetified-firebase-measurement-connector-17.0.0/AndroidManifest.xml:22:5-23:19
MERGED from [com.google.firebase:firebase-measurement-connector:17.0.0] /Users/4ie/.gradle/caches/transforms-2/files-2.1/bf16e5bd6cce762f1275ed518e3d8273/jetified-firebase-measurement-connector-17.0.0/AndroidManifest.xml:22:5-23:19
MERGED from [com.google.android.gms:play-services-ads-identifier:15.0.1] /Users/4ie/.gradle/caches/transforms-2/files-2.1/dd792603c213ddd7909aadaa1c9e5315/jetified-play-services-ads-identifier-15.0.1/AndroidManifest.xml:22:5-20
MERGED from [com.google.android.gms:play-services-ads-identifier:15.0.1] /Users/4ie/.gradle/caches/transforms-2/files-2.1/dd792603c213ddd7909aadaa1c9e5315/jetified-play-services-ads-identifier-15.0.1/AndroidManifest.xml:22:5-20
MERGED from [com.google.android.gms:play-services-basement:15.0.1] /Users/4ie/.gradle/caches/transforms-2/files-2.1/93774a5326db928439a06c087aecc699/jetified-play-services-basement-15.0.1/AndroidManifest.xml:22:5-26:19
MERGED from [com.google.android.gms:play-services-basement:15.0.1] /Users/4ie/.gradle/caches/transforms-2/files-2.1/93774a5326db928439a06c087aecc699/jetified-play-services-basement-15.0.1/AndroidManifest.xml:22:5-26:19
MERGED from [androidx.core:core:1.0.0] /Users/4ie/.gradle/caches/transforms-2/files-2.1/a20b19534ec45b4f14d11991741b6c12/core-1.0.0/AndroidManifest.xml:22:5-89
MERGED from [androidx.core:core:1.0.0] /Users/4ie/.gradle/caches/transforms-2/files-2.1/a20b19534ec45b4f14d11991741b6c12/core-1.0.0/AndroidManifest.xml:22:5-89
MERGED from [androidx.versionedparcelable:versionedparcelable:1.0.0] /Users/4ie/.gradle/caches/transforms-2/files-2.1/b19f062e17639ee898adc9a778a0133b/versionedparcelable-1.0.0/AndroidManifest.xml:22:5-23:19
MERGED from [androidx.versionedparcelable:versionedparcelable:1.0.0] /Users/4ie/.gradle/caches/transforms-2/files-2.1/b19f062e17639ee898adc9a778a0133b/versionedparcelable-1.0.0/AndroidManifest.xml:22:5-23:19
MERGED from [com.google.android.gms:play-services-measurement-base:16.0.2] /Users/4ie/.gradle/caches/transforms-2/files-2.1/30b22969cba594ccbd7b7f3e7d919ad4/play-services-measurement-base-16.0.2/AndroidManifest.xml:7:5-20
MERGED from [com.google.android.gms:play-services-measurement-base:16.0.2] /Users/4ie/.gradle/caches/transforms-2/files-2.1/30b22969cba594ccbd7b7f3e7d919ad4/play-services-measurement-base-16.0.2/AndroidManifest.xml:7:5-20
	android:appComponentFactory
		ADDED from [androidx.core:core:1.0.0] /Users/4ie/.gradle/caches/transforms-2/files-2.1/a20b19534ec45b4f14d11991741b6c12/core-1.0.0/AndroidManifest.xml:22:18-86
	android:label
		ADDED from /Users/4ie/Downloads/ICWE'20/android-server-server-solidPod/src/main/AndroidManifest.xml:5:17-49
	android:usesCleartextTraffic
		ADDED from /Users/4ie/Downloads/ICWE'20/android-server-server-solidPod/src/main/AndroidManifest.xml:6:17-52
activity#org.openapitools.server.MainActivity
ADDED from /Users/4ie/Downloads/ICWE'20/android-server-server-solidPod/src/main/AndroidManifest.xml:7:9-13:20
	android:name
		ADDED from /Users/4ie/Downloads/ICWE'20/android-server-server-solidPod/src/main/AndroidManifest.xml:7:19-47
intent-filter#action:name:android.intent.action.MAIN+category:name:android.intent.category.LAUNCHER
ADDED from /Users/4ie/Downloads/ICWE'20/android-server-server-solidPod/src/main/AndroidManifest.xml:8:13-12:29
action#android.intent.action.MAIN
ADDED from /Users/4ie/Downloads/ICWE'20/android-server-server-solidPod/src/main/AndroidManifest.xml:9:17-69
	android:name
		ADDED from /Users/4ie/Downloads/ICWE'20/android-server-server-solidPod/src/main/AndroidManifest.xml:9:25-66
category#android.intent.category.LAUNCHER
ADDED from /Users/4ie/Downloads/ICWE'20/android-server-server-solidPod/src/main/AndroidManifest.xml:11:17-77
	android:name
		ADDED from /Users/4ie/Downloads/ICWE'20/android-server-server-solidPod/src/main/AndroidManifest.xml:11:27-74
service#org.openapitools.server.service.FirebaseService
ADDED from /Users/4ie/Downloads/ICWE'20/android-server-server-solidPod/src/main/AndroidManifest.xml:15:9-20:19
	android:name
		ADDED from /Users/4ie/Downloads/ICWE'20/android-server-server-solidPod/src/main/AndroidManifest.xml:16:13-52
intent-filter#action:name:com.google.firebase.MESSAGING_EVENT
ADDED from /Users/4ie/Downloads/ICWE'20/android-server-server-solidPod/src/main/AndroidManifest.xml:17:13-19:29
action#com.google.firebase.MESSAGING_EVENT
ADDED from /Users/4ie/Downloads/ICWE'20/android-server-server-solidPod/src/main/AndroidManifest.xml:18:17-77
	android:name
		ADDED from /Users/4ie/Downloads/ICWE'20/android-server-server-solidPod/src/main/AndroidManifest.xml:18:25-75
uses-sdk
INJECTED from /Users/4ie/Downloads/ICWE'20/android-server-server-solidPod/src/main/AndroidManifest.xml reason: use-sdk injection requested
INJECTED from /Users/4ie/Downloads/ICWE'20/android-server-server-solidPod/src/main/AndroidManifest.xml
INJECTED from /Users/4ie/Downloads/ICWE'20/android-server-server-solidPod/src/main/AndroidManifest.xml
MERGED from [androidx.appcompat:appcompat:1.0.0] /Users/4ie/.gradle/caches/transforms-2/files-2.1/3058c647254461f88178d10efcc2bd41/appcompat-1.0.0/AndroidManifest.xml:20:5-44
MERGED from [androidx.appcompat:appcompat:1.0.0] /Users/4ie/.gradle/caches/transforms-2/files-2.1/3058c647254461f88178d10efcc2bd41/appcompat-1.0.0/AndroidManifest.xml:20:5-44
MERGED from [androidx.constraintlayout:constraintlayout:1.1.3] /Users/4ie/.gradle/caches/transforms-2/files-2.1/61ac015003c7090061b9318211a9ae75/constraintlayout-1.1.3/AndroidManifest.xml:5:5-7:41
MERGED from [androidx.constraintlayout:constraintlayout:1.1.3] /Users/4ie/.gradle/caches/transforms-2/files-2.1/61ac015003c7090061b9318211a9ae75/constraintlayout-1.1.3/AndroidManifest.xml:5:5-7:41
MERGED from [com.google.firebase:firebase-messaging:17.3.1] /Users/4ie/.gradle/caches/transforms-2/files-2.1/a6b63c0d5f1188cd317b6b93510bf33b/jetified-firebase-messaging-17.3.1/AndroidManifest.xml:20:5-44
MERGED from [com.google.firebase:firebase-messaging:17.3.1] /Users/4ie/.gradle/caches/transforms-2/files-2.1/a6b63c0d5f1188cd317b6b93510bf33b/jetified-firebase-messaging-17.3.1/AndroidManifest.xml:20:5-44
MERGED from [com.google.firebase:firebase-core:16.0.3] /Users/4ie/.gradle/caches/transforms-2/files-2.1/21d2b149b30f1271d09d61d14760d040/firebase-core-16.0.3/AndroidManifest.xml:5:5-44
MERGED from [com.google.firebase:firebase-core:16.0.3] /Users/4ie/.gradle/caches/transforms-2/files-2.1/21d2b149b30f1271d09d61d14760d040/firebase-core-16.0.3/AndroidManifest.xml:5:5-44
MERGED from [androidx.room:room-runtime:2.0.0] /Users/4ie/.gradle/caches/transforms-2/files-2.1/e77210b66f989adfc583e5e9bbedd0bf/room-runtime-2.0.0/AndroidManifest.xml:20:5-44
MERGED from [androidx.room:room-runtime:2.0.0] /Users/4ie/.gradle/caches/transforms-2/files-2.1/e77210b66f989adfc583e5e9bbedd0bf/room-runtime-2.0.0/AndroidManifest.xml:20:5-44
MERGED from [com.android.volley:volley:1.1.0] /Users/4ie/.gradle/caches/transforms-2/files-2.1/722456b6df1b605287e53512eed1df14/volley-1.1.0/AndroidManifest.xml:7:5-43
MERGED from [com.android.volley:volley:1.1.0] /Users/4ie/.gradle/caches/transforms-2/files-2.1/722456b6df1b605287e53512eed1df14/volley-1.1.0/AndroidManifest.xml:7:5-43
MERGED from [com.google.firebase:firebase-measurement-connector-impl:17.0.1] /Users/4ie/.gradle/caches/transforms-2/files-2.1/e20337f6dbbcea82c380e8eb55f251c0/jetified-firebase-measurement-connector-impl-17.0.1/AndroidManifest.xml:20:5-44
MERGED from [com.google.firebase:firebase-measurement-connector-impl:17.0.1] /Users/4ie/.gradle/caches/transforms-2/files-2.1/e20337f6dbbcea82c380e8eb55f251c0/jetified-firebase-measurement-connector-impl-17.0.1/AndroidManifest.xml:20:5-44
MERGED from [com.google.firebase:firebase-analytics:16.0.3] /Users/4ie/.gradle/caches/transforms-2/files-2.1/7976341d35454c9150ec024cce29c427/jetified-firebase-analytics-16.0.3/AndroidManifest.xml:20:5-44
MERGED from [com.google.firebase:firebase-analytics:16.0.3] /Users/4ie/.gradle/caches/transforms-2/files-2.1/7976341d35454c9150ec024cce29c427/jetified-firebase-analytics-16.0.3/AndroidManifest.xml:20:5-44
MERGED from [com.google.android.gms:play-services-measurement-api:16.0.1] /Users/4ie/.gradle/caches/transforms-2/files-2.1/12f1fa08b7ab57a76ec74b5d599b775c/jetified-play-services-measurement-api-16.0.1/AndroidManifest.xml:20:5-44
MERGED from [com.google.android.gms:play-services-measurement-api:16.0.1] /Users/4ie/.gradle/caches/transforms-2/files-2.1/12f1fa08b7ab57a76ec74b5d599b775c/jetified-play-services-measurement-api-16.0.1/AndroidManifest.xml:20:5-44
MERGED from [com.google.firebase:firebase-analytics-impl:16.2.1] /Users/4ie/.gradle/caches/transforms-2/files-2.1/de796e85b5307c9bd6a7ab305debb851/jetified-firebase-analytics-impl-16.2.1/AndroidManifest.xml:20:5-44
MERGED from [com.google.firebase:firebase-analytics-impl:16.2.1] /Users/4ie/.gradle/caches/transforms-2/files-2.1/de796e85b5307c9bd6a7ab305debb851/jetified-firebase-analytics-impl-16.2.1/AndroidManifest.xml:20:5-44
MERGED from [com.google.firebase:firebase-iid:17.0.1] /Users/4ie/.gradle/caches/transforms-2/files-2.1/fb20383dd92539c287dfc0cb29345a6e/jetified-firebase-iid-17.0.1/AndroidManifest.xml:20:5-44
MERGED from [com.google.firebase:firebase-iid:17.0.1] /Users/4ie/.gradle/caches/transforms-2/files-2.1/fb20383dd92539c287dfc0cb29345a6e/jetified-firebase-iid-17.0.1/AndroidManifest.xml:20:5-44
MERGED from [com.google.firebase:firebase-common:16.0.1] /Users/4ie/.gradle/caches/transforms-2/files-2.1/8cb76dd047487b887f101344838fbb4e/jetified-firebase-common-16.0.1/AndroidManifest.xml:5:5-7:41
MERGED from [com.google.firebase:firebase-common:16.0.1] /Users/4ie/.gradle/caches/transforms-2/files-2.1/8cb76dd047487b887f101344838fbb4e/jetified-firebase-common-16.0.1/AndroidManifest.xml:5:5-7:41
MERGED from [com.google.firebase:firebase-iid-interop:16.0.0] /Users/4ie/.gradle/caches/transforms-2/files-2.1/290d49b75720144314101fdc14145edc/jetified-firebase-iid-interop-16.0.0/AndroidManifest.xml:5:5-44
MERGED from [com.google.firebase:firebase-iid-interop:16.0.0] /Users/4ie/.gradle/caches/transforms-2/files-2.1/290d49b75720144314101fdc14145edc/jetified-firebase-iid-interop-16.0.0/AndroidManifest.xml:5:5-44
MERGED from [com.google.android.gms:play-services-base:15.0.1] /Users/4ie/.gradle/caches/transforms-2/files-2.1/ad326f339dbf53cf2f9d687e5319a899/jetified-play-services-base-15.0.1/AndroidManifest.xml:20:5-44
MERGED from [com.google.android.gms:play-services-base:15.0.1] /Users/4ie/.gradle/caches/transforms-2/files-2.1/ad326f339dbf53cf2f9d687e5319a899/jetified-play-services-base-15.0.1/AndroidManifest.xml:20:5-44
MERGED from [com.google.android.gms:play-services-tasks:15.0.1] /Users/4ie/.gradle/caches/transforms-2/files-2.1/21ab694ddc9ba005d9d064acdc9c581e/jetified-play-services-tasks-15.0.1/AndroidManifest.xml:5:5-44
MERGED from [com.google.android.gms:play-services-tasks:15.0.1] /Users/4ie/.gradle/caches/transforms-2/files-2.1/21ab694ddc9ba005d9d064acdc9c581e/jetified-play-services-tasks-15.0.1/AndroidManifest.xml:5:5-44
MERGED from [com.google.android.gms:play-services-stats:15.0.1] /Users/4ie/.gradle/caches/transforms-2/files-2.1/ba1f25003db8a56c557703792d2eae2a/jetified-play-services-stats-15.0.1/AndroidManifest.xml:5:5-44
MERGED from [com.google.android.gms:play-services-stats:15.0.1] /Users/4ie/.gradle/caches/transforms-2/files-2.1/ba1f25003db8a56c557703792d2eae2a/jetified-play-services-stats-15.0.1/AndroidManifest.xml:5:5-44
MERGED from [com.google.firebase:firebase-measurement-connector:17.0.0] /Users/4ie/.gradle/caches/transforms-2/files-2.1/bf16e5bd6cce762f1275ed518e3d8273/jetified-firebase-measurement-connector-17.0.0/AndroidManifest.xml:20:5-44
MERGED from [com.google.firebase:firebase-measurement-connector:17.0.0] /Users/4ie/.gradle/caches/transforms-2/files-2.1/bf16e5bd6cce762f1275ed518e3d8273/jetified-firebase-measurement-connector-17.0.0/AndroidManifest.xml:20:5-44
MERGED from [com.google.android.gms:play-services-ads-identifier:15.0.1] /Users/4ie/.gradle/caches/transforms-2/files-2.1/dd792603c213ddd7909aadaa1c9e5315/jetified-play-services-ads-identifier-15.0.1/AndroidManifest.xml:20:5-44
MERGED from [com.google.android.gms:play-services-ads-identifier:15.0.1] /Users/4ie/.gradle/caches/transforms-2/files-2.1/dd792603c213ddd7909aadaa1c9e5315/jetified-play-services-ads-identifier-15.0.1/AndroidManifest.xml:20:5-44
MERGED from [com.google.android.gms:play-services-basement:15.0.1] /Users/4ie/.gradle/caches/transforms-2/files-2.1/93774a5326db928439a06c087aecc699/jetified-play-services-basement-15.0.1/AndroidManifest.xml:20:5-44
MERGED from [com.google.android.gms:play-services-basement:15.0.1] /Users/4ie/.gradle/caches/transforms-2/files-2.1/93774a5326db928439a06c087aecc699/jetified-play-services-basement-15.0.1/AndroidManifest.xml:20:5-44
MERGED from [androidx.legacy:legacy-support-v4:1.0.0] /Users/4ie/.gradle/caches/transforms-2/files-2.1/69237cf0ef66aa8a29c5d37a77a64de4/legacy-support-v4-1.0.0/AndroidManifest.xml:20:5-44
MERGED from [androidx.legacy:legacy-support-v4:1.0.0] /Users/4ie/.gradle/caches/transforms-2/files-2.1/69237cf0ef66aa8a29c5d37a77a64de4/legacy-support-v4-1.0.0/AndroidManifest.xml:20:5-44
MERGED from [androidx.fragment:fragment:1.0.0] /Users/4ie/.gradle/caches/transforms-2/files-2.1/d0aed6f1d67e74d7f687e5c0bd796c7c/fragment-1.0.0/AndroidManifest.xml:20:5-44
MERGED from [androidx.fragment:fragment:1.0.0] /Users/4ie/.gradle/caches/transforms-2/files-2.1/d0aed6f1d67e74d7f687e5c0bd796c7c/fragment-1.0.0/AndroidManifest.xml:20:5-44
MERGED from [androidx.vectordrawable:vectordrawable-animated:1.0.0] /Users/4ie/.gradle/caches/transforms-2/files-2.1/897edba790783446d886205b3c2bffcd/vectordrawable-animated-1.0.0/AndroidManifest.xml:20:5-44
MERGED from [androidx.vectordrawable:vectordrawable-animated:1.0.0] /Users/4ie/.gradle/caches/transforms-2/files-2.1/897edba790783446d886205b3c2bffcd/vectordrawable-animated-1.0.0/AndroidManifest.xml:20:5-44
MERGED from [androidx.legacy:legacy-support-core-ui:1.0.0] /Users/4ie/.gradle/caches/transforms-2/files-2.1/d2096b15779507acda64b46e0f83f153/legacy-support-core-ui-1.0.0/AndroidManifest.xml:20:5-44
MERGED from [androidx.legacy:legacy-support-core-ui:1.0.0] /Users/4ie/.gradle/caches/transforms-2/files-2.1/d2096b15779507acda64b46e0f83f153/legacy-support-core-ui-1.0.0/AndroidManifest.xml:20:5-44
MERGED from [androidx.legacy:legacy-support-core-utils:1.0.0] /Users/4ie/.gradle/caches/transforms-2/files-2.1/97e35843906f83912c6142fe79482cda/legacy-support-core-utils-1.0.0/AndroidManifest.xml:20:5-44
MERGED from [androidx.legacy:legacy-support-core-utils:1.0.0] /Users/4ie/.gradle/caches/transforms-2/files-2.1/97e35843906f83912c6142fe79482cda/legacy-support-core-utils-1.0.0/AndroidManifest.xml:20:5-44
MERGED from [androidx.vectordrawable:vectordrawable:1.0.0] /Users/4ie/.gradle/caches/transforms-2/files-2.1/2cf529fc9aec48a19466854d480ad633/vectordrawable-1.0.0/AndroidManifest.xml:20:5-44
MERGED from [androidx.vectordrawable:vectordrawable:1.0.0] /Users/4ie/.gradle/caches/transforms-2/files-2.1/2cf529fc9aec48a19466854d480ad633/vectordrawable-1.0.0/AndroidManifest.xml:20:5-44
MERGED from [androidx.loader:loader:1.0.0] /Users/4ie/.gradle/caches/transforms-2/files-2.1/46e9f6cfc3ce4044a05e4844b8fa562e/loader-1.0.0/AndroidManifest.xml:20:5-44
MERGED from [androidx.loader:loader:1.0.0] /Users/4ie/.gradle/caches/transforms-2/files-2.1/46e9f6cfc3ce4044a05e4844b8fa562e/loader-1.0.0/AndroidManifest.xml:20:5-44
MERGED from [androidx.viewpager:viewpager:1.0.0] /Users/4ie/.gradle/caches/transforms-2/files-2.1/c6e330c61dc02fc8f0715f1d8c07ce19/viewpager-1.0.0/AndroidManifest.xml:20:5-44
MERGED from [androidx.viewpager:viewpager:1.0.0] /Users/4ie/.gradle/caches/transforms-2/files-2.1/c6e330c61dc02fc8f0715f1d8c07ce19/viewpager-1.0.0/AndroidManifest.xml:20:5-44
MERGED from [androidx.coordinatorlayout:coordinatorlayout:1.0.0] /Users/4ie/.gradle/caches/transforms-2/files-2.1/91342e88ab4924953e72df07e98e1dec/coordinatorlayout-1.0.0/AndroidManifest.xml:20:5-44
MERGED from [androidx.coordinatorlayout:coordinatorlayout:1.0.0] /Users/4ie/.gradle/caches/transforms-2/files-2.1/91342e88ab4924953e72df07e98e1dec/coordinatorlayout-1.0.0/AndroidManifest.xml:20:5-44
MERGED from [androidx.drawerlayout:drawerlayout:1.0.0] /Users/4ie/.gradle/caches/transforms-2/files-2.1/e535b46099016b496c9a02dd49ce3e58/drawerlayout-1.0.0/AndroidManifest.xml:20:5-44
MERGED from [androidx.drawerlayout:drawerlayout:1.0.0] /Users/4ie/.gradle/caches/transforms-2/files-2.1/e535b46099016b496c9a02dd49ce3e58/drawerlayout-1.0.0/AndroidManifest.xml:20:5-44
MERGED from [androidx.slidingpanelayout:slidingpanelayout:1.0.0] /Users/4ie/.gradle/caches/transforms-2/files-2.1/f1fbcb11f1e56ad98f8c9cbe5e548846/slidingpanelayout-1.0.0/AndroidManifest.xml:20:5-44
MERGED from [androidx.slidingpanelayout:slidingpanelayout:1.0.0] /Users/4ie/.gradle/caches/transforms-2/files-2.1/f1fbcb11f1e56ad98f8c9cbe5e548846/slidingpanelayout-1.0.0/AndroidManifest.xml:20:5-44
MERGED from [androidx.customview:customview:1.0.0] /Users/4ie/.gradle/caches/transforms-2/files-2.1/200bd284726050d1f88f5c0b1d33d779/customview-1.0.0/AndroidManifest.xml:20:5-44
MERGED from [androidx.customview:customview:1.0.0] /Users/4ie/.gradle/caches/transforms-2/files-2.1/200bd284726050d1f88f5c0b1d33d779/customview-1.0.0/AndroidManifest.xml:20:5-44
MERGED from [androidx.swiperefreshlayout:swiperefreshlayout:1.0.0] /Users/4ie/.gradle/caches/transforms-2/files-2.1/892a5dea31c6428399f5dee395311c64/swiperefreshlayout-1.0.0/AndroidManifest.xml:20:5-44
MERGED from [androidx.swiperefreshlayout:swiperefreshlayout:1.0.0] /Users/4ie/.gradle/caches/transforms-2/files-2.1/892a5dea31c6428399f5dee395311c64/swiperefreshlayout-1.0.0/AndroidManifest.xml:20:5-44
MERGED from [androidx.asynclayoutinflater:asynclayoutinflater:1.0.0] /Users/4ie/.gradle/caches/transforms-2/files-2.1/0cba1cb48cfa6e3d08dcd3bc2c0ed3b0/asynclayoutinflater-1.0.0/AndroidManifest.xml:20:5-44
MERGED from [androidx.asynclayoutinflater:asynclayoutinflater:1.0.0] /Users/4ie/.gradle/caches/transforms-2/files-2.1/0cba1cb48cfa6e3d08dcd3bc2c0ed3b0/asynclayoutinflater-1.0.0/AndroidManifest.xml:20:5-44
MERGED from [androidx.media:media:1.0.0] /Users/4ie/.gradle/caches/transforms-2/files-2.1/9b82ae25d7fd53bbdfe71b3facda08da/media-1.0.0/AndroidManifest.xml:20:5-44
MERGED from [androidx.media:media:1.0.0] /Users/4ie/.gradle/caches/transforms-2/files-2.1/9b82ae25d7fd53bbdfe71b3facda08da/media-1.0.0/AndroidManifest.xml:20:5-44
MERGED from [androidx.core:core:1.0.0] /Users/4ie/.gradle/caches/transforms-2/files-2.1/a20b19534ec45b4f14d11991741b6c12/core-1.0.0/AndroidManifest.xml:20:5-44
MERGED from [androidx.core:core:1.0.0] /Users/4ie/.gradle/caches/transforms-2/files-2.1/a20b19534ec45b4f14d11991741b6c12/core-1.0.0/AndroidManifest.xml:20:5-44
MERGED from [androidx.versionedparcelable:versionedparcelable:1.0.0] /Users/4ie/.gradle/caches/transforms-2/files-2.1/b19f062e17639ee898adc9a778a0133b/versionedparcelable-1.0.0/AndroidManifest.xml:20:5-44
MERGED from [androidx.versionedparcelable:versionedparcelable:1.0.0] /Users/4ie/.gradle/caches/transforms-2/files-2.1/b19f062e17639ee898adc9a778a0133b/versionedparcelable-1.0.0/AndroidManifest.xml:20:5-44
MERGED from [androidx.cursoradapter:cursoradapter:1.0.0] /Users/4ie/.gradle/caches/transforms-2/files-2.1/ffcec0c76f59bfb3c9bd3fa2435323ac/cursoradapter-1.0.0/AndroidManifest.xml:20:5-44
MERGED from [androidx.cursoradapter:cursoradapter:1.0.0] /Users/4ie/.gradle/caches/transforms-2/files-2.1/ffcec0c76f59bfb3c9bd3fa2435323ac/cursoradapter-1.0.0/AndroidManifest.xml:20:5-44
MERGED from [androidx.sqlite:sqlite-framework:2.0.0] /Users/4ie/.gradle/caches/transforms-2/files-2.1/afdf5091933dfb422e27071ac553726b/sqlite-framework-2.0.0/AndroidManifest.xml:20:5-44
MERGED from [androidx.sqlite:sqlite-framework:2.0.0] /Users/4ie/.gradle/caches/transforms-2/files-2.1/afdf5091933dfb422e27071ac553726b/sqlite-framework-2.0.0/AndroidManifest.xml:20:5-44
MERGED from [androidx.sqlite:sqlite:2.0.0] /Users/4ie/.gradle/caches/transforms-2/files-2.1/d0e31fb7cbcad669bc7afa20cd0dc480/sqlite-2.0.0/AndroidManifest.xml:20:5-44
MERGED from [androidx.sqlite:sqlite:2.0.0] /Users/4ie/.gradle/caches/transforms-2/files-2.1/d0e31fb7cbcad669bc7afa20cd0dc480/sqlite-2.0.0/AndroidManifest.xml:20:5-44
MERGED from [androidx.lifecycle:lifecycle-livedata:2.0.0] /Users/4ie/.gradle/caches/transforms-2/files-2.1/be231a28aaa2449ce4853d3db2493e6c/lifecycle-livedata-2.0.0/AndroidManifest.xml:20:5-44
MERGED from [androidx.lifecycle:lifecycle-livedata:2.0.0] /Users/4ie/.gradle/caches/transforms-2/files-2.1/be231a28aaa2449ce4853d3db2493e6c/lifecycle-livedata-2.0.0/AndroidManifest.xml:20:5-44
MERGED from [androidx.lifecycle:lifecycle-livedata-core:2.0.0] /Users/4ie/.gradle/caches/transforms-2/files-2.1/12ca435aab6c06f265d329fee45bdc0e/lifecycle-livedata-core-2.0.0/AndroidManifest.xml:20:5-44
MERGED from [androidx.lifecycle:lifecycle-livedata-core:2.0.0] /Users/4ie/.gradle/caches/transforms-2/files-2.1/12ca435aab6c06f265d329fee45bdc0e/lifecycle-livedata-core-2.0.0/AndroidManifest.xml:20:5-44
MERGED from [androidx.arch.core:core-runtime:2.0.0] /Users/4ie/.gradle/caches/transforms-2/files-2.1/6d726f37b9dab952a27289d0819246e8/core-runtime-2.0.0/AndroidManifest.xml:20:5-44
MERGED from [androidx.arch.core:core-runtime:2.0.0] /Users/4ie/.gradle/caches/transforms-2/files-2.1/6d726f37b9dab952a27289d0819246e8/core-runtime-2.0.0/AndroidManifest.xml:20:5-44
MERGED from [androidx.lifecycle:lifecycle-runtime:2.0.0] /Users/4ie/.gradle/caches/transforms-2/files-2.1/59178626827df158d0b8b80954e920cf/lifecycle-runtime-2.0.0/AndroidManifest.xml:20:5-44
MERGED from [androidx.lifecycle:lifecycle-runtime:2.0.0] /Users/4ie/.gradle/caches/transforms-2/files-2.1/59178626827df158d0b8b80954e920cf/lifecycle-runtime-2.0.0/AndroidManifest.xml:20:5-44
MERGED from [androidx.documentfile:documentfile:1.0.0] /Users/4ie/.gradle/caches/transforms-2/files-2.1/fe1cb231c010a2cbc75f76ef63cac664/documentfile-1.0.0/AndroidManifest.xml:20:5-44
MERGED from [androidx.documentfile:documentfile:1.0.0] /Users/4ie/.gradle/caches/transforms-2/files-2.1/fe1cb231c010a2cbc75f76ef63cac664/documentfile-1.0.0/AndroidManifest.xml:20:5-44
MERGED from [androidx.localbroadcastmanager:localbroadcastmanager:1.0.0] /Users/4ie/.gradle/caches/transforms-2/files-2.1/d28c34cfc7e33f6b1b01198b7abd15de/localbroadcastmanager-1.0.0/AndroidManifest.xml:20:5-44
MERGED from [androidx.localbroadcastmanager:localbroadcastmanager:1.0.0] /Users/4ie/.gradle/caches/transforms-2/files-2.1/d28c34cfc7e33f6b1b01198b7abd15de/localbroadcastmanager-1.0.0/AndroidManifest.xml:20:5-44
MERGED from [androidx.print:print:1.0.0] /Users/4ie/.gradle/caches/transforms-2/files-2.1/b520b4e9086485567eb49a2e8529fdfe/print-1.0.0/AndroidManifest.xml:20:5-44
MERGED from [androidx.print:print:1.0.0] /Users/4ie/.gradle/caches/transforms-2/files-2.1/b520b4e9086485567eb49a2e8529fdfe/print-1.0.0/AndroidManifest.xml:20:5-44
MERGED from [androidx.lifecycle:lifecycle-viewmodel:2.0.0] /Users/4ie/.gradle/caches/transforms-2/files-2.1/b09c2739c3128e6f404e47deac8b48e1/lifecycle-viewmodel-2.0.0/AndroidManifest.xml:20:5-44
MERGED from [androidx.lifecycle:lifecycle-viewmodel:2.0.0] /Users/4ie/.gradle/caches/transforms-2/files-2.1/b09c2739c3128e6f404e47deac8b48e1/lifecycle-viewmodel-2.0.0/AndroidManifest.xml:20:5-44
MERGED from [androidx.interpolator:interpolator:1.0.0] /Users/4ie/.gradle/caches/transforms-2/files-2.1/e3788a727e8e59d2b23791dd166c3319/interpolator-1.0.0/AndroidManifest.xml:20:5-44
MERGED from [androidx.interpolator:interpolator:1.0.0] /Users/4ie/.gradle/caches/transforms-2/files-2.1/e3788a727e8e59d2b23791dd166c3319/interpolator-1.0.0/AndroidManifest.xml:20:5-44
MERGED from [com.google.android.gms:play-services-measurement-base:16.0.2] /Users/4ie/.gradle/caches/transforms-2/files-2.1/30b22969cba594ccbd7b7f3e7d919ad4/play-services-measurement-base-16.0.2/AndroidManifest.xml:5:5-44
MERGED from [com.google.android.gms:play-services-measurement-base:16.0.2] /Users/4ie/.gradle/caches/transforms-2/files-2.1/30b22969cba594ccbd7b7f3e7d919ad4/play-services-measurement-base-16.0.2/AndroidManifest.xml:5:5-44
INJECTED from /Users/4ie/Downloads/ICWE'20/android-server-server-solidPod/src/main/AndroidManifest.xml
INJECTED from /Users/4ie/Downloads/ICWE'20/android-server-server-solidPod/src/main/AndroidManifest.xml
	android:targetSdkVersion
		INJECTED from /Users/4ie/Downloads/ICWE'20/android-server-server-solidPod/src/main/AndroidManifest.xml
		ADDED from /Users/4ie/Downloads/ICWE'20/android-server-server-solidPod/src/main/AndroidManifest.xml
		INJECTED from /Users/4ie/Downloads/ICWE'20/android-server-server-solidPod/src/main/AndroidManifest.xml
	android:minSdkVersion
		INJECTED from /Users/4ie/Downloads/ICWE'20/android-server-server-solidPod/src/main/AndroidManifest.xml
		ADDED from /Users/4ie/Downloads/ICWE'20/android-server-server-solidPod/src/main/AndroidManifest.xml
		INJECTED from /Users/4ie/Downloads/ICWE'20/android-server-server-solidPod/src/main/AndroidManifest.xml
service#com.google.firebase.messaging.FirebaseMessagingService
ADDED from [com.google.firebase:firebase-messaging:17.3.1] /Users/4ie/.gradle/caches/transforms-2/files-2.1/a6b63c0d5f1188cd317b6b93510bf33b/jetified-firebase-messaging-17.3.1/AndroidManifest.xml:28:9-34:19
	android:exported
		ADDED from [com.google.firebase:firebase-messaging:17.3.1] /Users/4ie/.gradle/caches/transforms-2/files-2.1/a6b63c0d5f1188cd317b6b93510bf33b/jetified-firebase-messaging-17.3.1/AndroidManifest.xml:30:13-36
	android:name
		ADDED from [com.google.firebase:firebase-messaging:17.3.1] /Users/4ie/.gradle/caches/transforms-2/files-2.1/a6b63c0d5f1188cd317b6b93510bf33b/jetified-firebase-messaging-17.3.1/AndroidManifest.xml:29:13-82
uses-permission#android.permission.WAKE_LOCK
ADDED from [com.google.firebase:firebase-measurement-connector-impl:17.0.1] /Users/4ie/.gradle/caches/transforms-2/files-2.1/e20337f6dbbcea82c380e8eb55f251c0/jetified-firebase-measurement-connector-impl-17.0.1/AndroidManifest.xml:24:5-68
MERGED from [com.google.firebase:firebase-analytics:16.0.3] /Users/4ie/.gradle/caches/transforms-2/files-2.1/7976341d35454c9150ec024cce29c427/jetified-firebase-analytics-16.0.3/AndroidManifest.xml:25:5-68
MERGED from [com.google.firebase:firebase-analytics:16.0.3] /Users/4ie/.gradle/caches/transforms-2/files-2.1/7976341d35454c9150ec024cce29c427/jetified-firebase-analytics-16.0.3/AndroidManifest.xml:25:5-68
MERGED from [com.google.firebase:firebase-analytics-impl:16.2.1] /Users/4ie/.gradle/caches/transforms-2/files-2.1/de796e85b5307c9bd6a7ab305debb851/jetified-firebase-analytics-impl-16.2.1/AndroidManifest.xml:25:5-68
MERGED from [com.google.firebase:firebase-analytics-impl:16.2.1] /Users/4ie/.gradle/caches/transforms-2/files-2.1/de796e85b5307c9bd6a7ab305debb851/jetified-firebase-analytics-impl-16.2.1/AndroidManifest.xml:25:5-68
MERGED from [com.google.firebase:firebase-iid:17.0.1] /Users/4ie/.gradle/caches/transforms-2/files-2.1/fb20383dd92539c287dfc0cb29345a6e/jetified-firebase-iid-17.0.1/AndroidManifest.xml:24:5-68
MERGED from [com.google.firebase:firebase-iid:17.0.1] /Users/4ie/.gradle/caches/transforms-2/files-2.1/fb20383dd92539c287dfc0cb29345a6e/jetified-firebase-iid-17.0.1/AndroidManifest.xml:24:5-68
	android:name
		ADDED from [com.google.firebase:firebase-measurement-connector-impl:17.0.1] /Users/4ie/.gradle/caches/transforms-2/files-2.1/e20337f6dbbcea82c380e8eb55f251c0/jetified-firebase-measurement-connector-impl-17.0.1/AndroidManifest.xml:24:22-65
service#com.google.firebase.components.ComponentDiscoveryService
ADDED from [com.google.firebase:firebase-measurement-connector-impl:17.0.1] /Users/4ie/.gradle/caches/transforms-2/files-2.1/e20337f6dbbcea82c380e8eb55f251c0/jetified-firebase-measurement-connector-impl-17.0.1/AndroidManifest.xml:27:9-31:19
MERGED from [com.google.firebase:firebase-iid:17.0.1] /Users/4ie/.gradle/caches/transforms-2/files-2.1/fb20383dd92539c287dfc0cb29345a6e/jetified-firebase-iid-17.0.1/AndroidManifest.xml:29:9-35:19
MERGED from [com.google.firebase:firebase-iid:17.0.1] /Users/4ie/.gradle/caches/transforms-2/files-2.1/fb20383dd92539c287dfc0cb29345a6e/jetified-firebase-iid-17.0.1/AndroidManifest.xml:29:9-35:19
	android:exported
		ADDED from [com.google.firebase:firebase-iid:17.0.1] /Users/4ie/.gradle/caches/transforms-2/files-2.1/fb20383dd92539c287dfc0cb29345a6e/jetified-firebase-iid-17.0.1/AndroidManifest.xml:31:13-37
	android:name
		ADDED from [com.google.firebase:firebase-measurement-connector-impl:17.0.1] /Users/4ie/.gradle/caches/transforms-2/files-2.1/e20337f6dbbcea82c380e8eb55f251c0/jetified-firebase-measurement-connector-impl-17.0.1/AndroidManifest.xml:27:18-89
meta-data#com.google.firebase.components:com.google.firebase.analytics.connector.internal.AnalyticsConnectorRegistrar
ADDED from [com.google.firebase:firebase-measurement-connector-impl:17.0.1] /Users/4ie/.gradle/caches/transforms-2/files-2.1/e20337f6dbbcea82c380e8eb55f251c0/jetified-firebase-measurement-connector-impl-17.0.1/AndroidManifest.xml:28:13-30:85
	android:value
		ADDED from [com.google.firebase:firebase-measurement-connector-impl:17.0.1] /Users/4ie/.gradle/caches/transforms-2/files-2.1/e20337f6dbbcea82c380e8eb55f251c0/jetified-firebase-measurement-connector-impl-17.0.1/AndroidManifest.xml:30:17-82
	android:name
		ADDED from [com.google.firebase:firebase-measurement-connector-impl:17.0.1] /Users/4ie/.gradle/caches/transforms-2/files-2.1/e20337f6dbbcea82c380e8eb55f251c0/jetified-firebase-measurement-connector-impl-17.0.1/AndroidManifest.xml:29:17-139
uses-permission#com.google.android.finsky.permission.BIND_GET_INSTALL_REFERRER_SERVICE
ADDED from [com.google.firebase:firebase-analytics:16.0.3] /Users/4ie/.gradle/caches/transforms-2/files-2.1/7976341d35454c9150ec024cce29c427/jetified-firebase-analytics-16.0.3/AndroidManifest.xml:26:5-110
MERGED from [com.google.firebase:firebase-analytics-impl:16.2.1] /Users/4ie/.gradle/caches/transforms-2/files-2.1/de796e85b5307c9bd6a7ab305debb851/jetified-firebase-analytics-impl-16.2.1/AndroidManifest.xml:26:5-110
MERGED from [com.google.firebase:firebase-analytics-impl:16.2.1] /Users/4ie/.gradle/caches/transforms-2/files-2.1/de796e85b5307c9bd6a7ab305debb851/jetified-firebase-analytics-impl-16.2.1/AndroidManifest.xml:26:5-110
	android:name
		ADDED from [com.google.firebase:firebase-analytics:16.0.3] /Users/4ie/.gradle/caches/transforms-2/files-2.1/7976341d35454c9150ec024cce29c427/jetified-firebase-analytics-16.0.3/AndroidManifest.xml:26:22-107
receiver#com.google.android.gms.measurement.AppMeasurementReceiver
ADDED from [com.google.firebase:firebase-analytics:16.0.3] /Users/4ie/.gradle/caches/transforms-2/files-2.1/7976341d35454c9150ec024cce29c427/jetified-firebase-analytics-16.0.3/AndroidManifest.xml:29:9-33:20
	android:enabled
		ADDED from [com.google.firebase:firebase-analytics:16.0.3] /Users/4ie/.gradle/caches/transforms-2/files-2.1/7976341d35454c9150ec024cce29c427/jetified-firebase-analytics-16.0.3/AndroidManifest.xml:31:13-35
	android:exported
		ADDED from [com.google.firebase:firebase-analytics:16.0.3] /Users/4ie/.gradle/caches/transforms-2/files-2.1/7976341d35454c9150ec024cce29c427/jetified-firebase-analytics-16.0.3/AndroidManifest.xml:32:13-37
	android:name
		ADDED from [com.google.firebase:firebase-analytics:16.0.3] /Users/4ie/.gradle/caches/transforms-2/files-2.1/7976341d35454c9150ec024cce29c427/jetified-firebase-analytics-16.0.3/AndroidManifest.xml:30:13-85
receiver#com.google.android.gms.measurement.AppMeasurementInstallReferrerReceiver
ADDED from [com.google.firebase:firebase-analytics:16.0.3] /Users/4ie/.gradle/caches/transforms-2/files-2.1/7976341d35454c9150ec024cce29c427/jetified-firebase-analytics-16.0.3/AndroidManifest.xml:34:9-42:20
MERGED from [com.google.firebase:firebase-analytics-impl:16.2.1] /Users/4ie/.gradle/caches/transforms-2/files-2.1/de796e85b5307c9bd6a7ab305debb851/jetified-firebase-analytics-impl-16.2.1/AndroidManifest.xml:29:9-37:20
MERGED from [com.google.firebase:firebase-analytics-impl:16.2.1] /Users/4ie/.gradle/caches/transforms-2/files-2.1/de796e85b5307c9bd6a7ab305debb851/jetified-firebase-analytics-impl-16.2.1/AndroidManifest.xml:29:9-37:20
	android:enabled
		ADDED from [com.google.firebase:firebase-analytics:16.0.3] /Users/4ie/.gradle/caches/transforms-2/files-2.1/7976341d35454c9150ec024cce29c427/jetified-firebase-analytics-16.0.3/AndroidManifest.xml:36:13-35
	android:exported
		ADDED from [com.google.firebase:firebase-analytics:16.0.3] /Users/4ie/.gradle/caches/transforms-2/files-2.1/7976341d35454c9150ec024cce29c427/jetified-firebase-analytics-16.0.3/AndroidManifest.xml:37:13-36
	android:permission
		ADDED from [com.google.firebase:firebase-analytics:16.0.3] /Users/4ie/.gradle/caches/transforms-2/files-2.1/7976341d35454c9150ec024cce29c427/jetified-firebase-analytics-16.0.3/AndroidManifest.xml:38:13-69
	android:name
		ADDED from [com.google.firebase:firebase-analytics:16.0.3] /Users/4ie/.gradle/caches/transforms-2/files-2.1/7976341d35454c9150ec024cce29c427/jetified-firebase-analytics-16.0.3/AndroidManifest.xml:35:13-100
intent-filter#action:name:com.android.vending.INSTALL_REFERRER
ADDED from [com.google.firebase:firebase-analytics:16.0.3] /Users/4ie/.gradle/caches/transforms-2/files-2.1/7976341d35454c9150ec024cce29c427/jetified-firebase-analytics-16.0.3/AndroidManifest.xml:39:13-41:29
action#com.android.vending.INSTALL_REFERRER
ADDED from [com.google.firebase:firebase-analytics:16.0.3] /Users/4ie/.gradle/caches/transforms-2/files-2.1/7976341d35454c9150ec024cce29c427/jetified-firebase-analytics-16.0.3/AndroidManifest.xml:40:17-79
	android:name
		ADDED from [com.google.firebase:firebase-analytics:16.0.3] /Users/4ie/.gradle/caches/transforms-2/files-2.1/7976341d35454c9150ec024cce29c427/jetified-firebase-analytics-16.0.3/AndroidManifest.xml:40:25-76
service#com.google.android.gms.measurement.AppMeasurementService
ADDED from [com.google.firebase:firebase-analytics:16.0.3] /Users/4ie/.gradle/caches/transforms-2/files-2.1/7976341d35454c9150ec024cce29c427/jetified-firebase-analytics-16.0.3/AndroidManifest.xml:44:9-47:40
	android:enabled
		ADDED from [com.google.firebase:firebase-analytics:16.0.3] /Users/4ie/.gradle/caches/transforms-2/files-2.1/7976341d35454c9150ec024cce29c427/jetified-firebase-analytics-16.0.3/AndroidManifest.xml:46:13-35
	android:exported
		ADDED from [com.google.firebase:firebase-analytics:16.0.3] /Users/4ie/.gradle/caches/transforms-2/files-2.1/7976341d35454c9150ec024cce29c427/jetified-firebase-analytics-16.0.3/AndroidManifest.xml:47:13-37
	android:name
		ADDED from [com.google.firebase:firebase-analytics:16.0.3] /Users/4ie/.gradle/caches/transforms-2/files-2.1/7976341d35454c9150ec024cce29c427/jetified-firebase-analytics-16.0.3/AndroidManifest.xml:45:13-84
service#com.google.android.gms.measurement.AppMeasurementJobService
ADDED from [com.google.firebase:firebase-analytics:16.0.3] /Users/4ie/.gradle/caches/transforms-2/files-2.1/7976341d35454c9150ec024cce29c427/jetified-firebase-analytics-16.0.3/AndroidManifest.xml:48:9-52:72
	android:enabled
		ADDED from [com.google.firebase:firebase-analytics:16.0.3] /Users/4ie/.gradle/caches/transforms-2/files-2.1/7976341d35454c9150ec024cce29c427/jetified-firebase-analytics-16.0.3/AndroidManifest.xml:50:13-35
	android:exported
		ADDED from [com.google.firebase:firebase-analytics:16.0.3] /Users/4ie/.gradle/caches/transforms-2/files-2.1/7976341d35454c9150ec024cce29c427/jetified-firebase-analytics-16.0.3/AndroidManifest.xml:51:13-37
	android:permission
		ADDED from [com.google.firebase:firebase-analytics:16.0.3] /Users/4ie/.gradle/caches/transforms-2/files-2.1/7976341d35454c9150ec024cce29c427/jetified-firebase-analytics-16.0.3/AndroidManifest.xml:52:13-69
	android:name
		ADDED from [com.google.firebase:firebase-analytics:16.0.3] /Users/4ie/.gradle/caches/transforms-2/files-2.1/7976341d35454c9150ec024cce29c427/jetified-firebase-analytics-16.0.3/AndroidManifest.xml:49:13-87
uses-permission#com.google.android.c2dm.permission.RECEIVE
ADDED from [com.google.firebase:firebase-iid:17.0.1] /Users/4ie/.gradle/caches/transforms-2/files-2.1/fb20383dd92539c287dfc0cb29345a6e/jetified-firebase-iid-17.0.1/AndroidManifest.xml:26:5-82
	android:name
		ADDED from [com.google.firebase:firebase-iid:17.0.1] /Users/4ie/.gradle/caches/transforms-2/files-2.1/fb20383dd92539c287dfc0cb29345a6e/jetified-firebase-iid-17.0.1/AndroidManifest.xml:26:22-79
meta-data#com.google.firebase.components:com.google.firebase.iid.Registrar
ADDED from [com.google.firebase:firebase-iid:17.0.1] /Users/4ie/.gradle/caches/transforms-2/files-2.1/fb20383dd92539c287dfc0cb29345a6e/jetified-firebase-iid-17.0.1/AndroidManifest.xml:32:13-34:85
	android:value
		ADDED from [com.google.firebase:firebase-iid:17.0.1] /Users/4ie/.gradle/caches/transforms-2/files-2.1/fb20383dd92539c287dfc0cb29345a6e/jetified-firebase-iid-17.0.1/AndroidManifest.xml:34:17-82
	android:name
		ADDED from [com.google.firebase:firebase-iid:17.0.1] /Users/4ie/.gradle/caches/transforms-2/files-2.1/fb20383dd92539c287dfc0cb29345a6e/jetified-firebase-iid-17.0.1/AndroidManifest.xml:33:17-96
receiver#com.google.firebase.iid.FirebaseInstanceIdReceiver
ADDED from [com.google.firebase:firebase-iid:17.0.1] /Users/4ie/.gradle/caches/transforms-2/files-2.1/fb20383dd92539c287dfc0cb29345a6e/jetified-firebase-iid-17.0.1/AndroidManifest.xml:37:9-44:20
	android:exported
		ADDED from [com.google.firebase:firebase-iid:17.0.1] /Users/4ie/.gradle/caches/transforms-2/files-2.1/fb20383dd92539c287dfc0cb29345a6e/jetified-firebase-iid-17.0.1/AndroidManifest.xml:39:13-36
	android:permission
		ADDED from [com.google.firebase:firebase-iid:17.0.1] /Users/4ie/.gradle/caches/transforms-2/files-2.1/fb20383dd92539c287dfc0cb29345a6e/jetified-firebase-iid-17.0.1/AndroidManifest.xml:40:13-73
	android:name
		ADDED from [com.google.firebase:firebase-iid:17.0.1] /Users/4ie/.gradle/caches/transforms-2/files-2.1/fb20383dd92539c287dfc0cb29345a6e/jetified-firebase-iid-17.0.1/AndroidManifest.xml:38:13-78
intent-filter#action:name:com.google.android.c2dm.intent.RECEIVE
ADDED from [com.google.firebase:firebase-iid:17.0.1] /Users/4ie/.gradle/caches/transforms-2/files-2.1/fb20383dd92539c287dfc0cb29345a6e/jetified-firebase-iid-17.0.1/AndroidManifest.xml:41:13-43:29
action#com.google.android.c2dm.intent.RECEIVE
ADDED from [com.google.firebase:firebase-iid:17.0.1] /Users/4ie/.gradle/caches/transforms-2/files-2.1/fb20383dd92539c287dfc0cb29345a6e/jetified-firebase-iid-17.0.1/AndroidManifest.xml:42:17-81
	android:name
		ADDED from [com.google.firebase:firebase-iid:17.0.1] /Users/4ie/.gradle/caches/transforms-2/files-2.1/fb20383dd92539c287dfc0cb29345a6e/jetified-firebase-iid-17.0.1/AndroidManifest.xml:42:25-78
service#com.google.firebase.iid.FirebaseInstanceIdService
ADDED from [com.google.firebase:firebase-iid:17.0.1] /Users/4ie/.gradle/caches/transforms-2/files-2.1/fb20383dd92539c287dfc0cb29345a6e/jetified-firebase-iid-17.0.1/AndroidManifest.xml:50:9-56:19
	android:exported
		ADDED from [com.google.firebase:firebase-iid:17.0.1] /Users/4ie/.gradle/caches/transforms-2/files-2.1/fb20383dd92539c287dfc0cb29345a6e/jetified-firebase-iid-17.0.1/AndroidManifest.xml:52:13-36
	android:name
		ADDED from [com.google.firebase:firebase-iid:17.0.1] /Users/4ie/.gradle/caches/transforms-2/files-2.1/fb20383dd92539c287dfc0cb29345a6e/jetified-firebase-iid-17.0.1/AndroidManifest.xml:51:13-77
intent-filter#action:name:com.google.firebase.INSTANCE_ID_EVENT
ADDED from [com.google.firebase:firebase-iid:17.0.1] /Users/4ie/.gradle/caches/transforms-2/files-2.1/fb20383dd92539c287dfc0cb29345a6e/jetified-firebase-iid-17.0.1/AndroidManifest.xml:53:13-55:29
	android:priority
		ADDED from [com.google.firebase:firebase-iid:17.0.1] /Users/4ie/.gradle/caches/transforms-2/files-2.1/fb20383dd92539c287dfc0cb29345a6e/jetified-firebase-iid-17.0.1/AndroidManifest.xml:53:28-51
action#com.google.firebase.INSTANCE_ID_EVENT
ADDED from [com.google.firebase:firebase-iid:17.0.1] /Users/4ie/.gradle/caches/transforms-2/files-2.1/fb20383dd92539c287dfc0cb29345a6e/jetified-firebase-iid-17.0.1/AndroidManifest.xml:54:17-80
	android:name
		ADDED from [com.google.firebase:firebase-iid:17.0.1] /Users/4ie/.gradle/caches/transforms-2/files-2.1/fb20383dd92539c287dfc0cb29345a6e/jetified-firebase-iid-17.0.1/AndroidManifest.xml:54:25-77
provider#com.google.firebase.provider.FirebaseInitProvider
ADDED from [com.google.firebase:firebase-common:16.0.1] /Users/4ie/.gradle/caches/transforms-2/files-2.1/8cb76dd047487b887f101344838fbb4e/jetified-firebase-common-16.0.1/AndroidManifest.xml:10:9-14:39
	android:authorities
		ADDED from [com.google.firebase:firebase-common:16.0.1] /Users/4ie/.gradle/caches/transforms-2/files-2.1/8cb76dd047487b887f101344838fbb4e/jetified-firebase-common-16.0.1/AndroidManifest.xml:12:13-72
	android:exported
		ADDED from [com.google.firebase:firebase-common:16.0.1] /Users/4ie/.gradle/caches/transforms-2/files-2.1/8cb76dd047487b887f101344838fbb4e/jetified-firebase-common-16.0.1/AndroidManifest.xml:13:13-37
	android:initOrder
		ADDED from [com.google.firebase:firebase-common:16.0.1] /Users/4ie/.gradle/caches/transforms-2/files-2.1/8cb76dd047487b887f101344838fbb4e/jetified-firebase-common-16.0.1/AndroidManifest.xml:14:13-36
	android:name
		ADDED from [com.google.firebase:firebase-common:16.0.1] /Users/4ie/.gradle/caches/transforms-2/files-2.1/8cb76dd047487b887f101344838fbb4e/jetified-firebase-common-16.0.1/AndroidManifest.xml:11:13-77
activity#com.google.android.gms.common.api.GoogleApiActivity
ADDED from [com.google.android.gms:play-services-base:15.0.1] /Users/4ie/.gradle/caches/transforms-2/files-2.1/ad326f339dbf53cf2f9d687e5319a899/jetified-play-services-base-15.0.1/AndroidManifest.xml:23:9-26:75
	android:exported
		ADDED from [com.google.android.gms:play-services-base:15.0.1] /Users/4ie/.gradle/caches/transforms-2/files-2.1/ad326f339dbf53cf2f9d687e5319a899/jetified-play-services-base-15.0.1/AndroidManifest.xml:25:13-37
	android:theme
		ADDED from [com.google.android.gms:play-services-base:15.0.1] /Users/4ie/.gradle/caches/transforms-2/files-2.1/ad326f339dbf53cf2f9d687e5319a899/jetified-play-services-base-15.0.1/AndroidManifest.xml:26:13-72
	android:name
		ADDED from [com.google.android.gms:play-services-base:15.0.1] /Users/4ie/.gradle/caches/transforms-2/files-2.1/ad326f339dbf53cf2f9d687e5319a899/jetified-play-services-base-15.0.1/AndroidManifest.xml:24:13-79
meta-data#com.google.android.gms.version
ADDED from [com.google.android.gms:play-services-basement:15.0.1] /Users/4ie/.gradle/caches/transforms-2/files-2.1/93774a5326db928439a06c087aecc699/jetified-play-services-basement-15.0.1/AndroidManifest.xml:23:9-25:69
	android:value
		ADDED from [com.google.android.gms:play-services-basement:15.0.1] /Users/4ie/.gradle/caches/transforms-2/files-2.1/93774a5326db928439a06c087aecc699/jetified-play-services-basement-15.0.1/AndroidManifest.xml:25:13-66
	android:name
		ADDED from [com.google.android.gms:play-services-basement:15.0.1] /Users/4ie/.gradle/caches/transforms-2/files-2.1/93774a5326db928439a06c087aecc699/jetified-play-services-basement-15.0.1/AndroidManifest.xml:24:13-58
